0001	0001	0001	0001	0001	1011	1110	0001	
0001	0010	0011	0100	1110	0001	0010	0001	
0001	0011	0010	1000	0111	1100	1010	0001	
0001	0100	1000	0101	1100	1000	0110	0001	
0011	0100	1100	1001	1000	0101	0001	0001	
1111	1100	0101	0100	0011	0100	0001	0001	
0001	0001	0001	0001	0001	0001	0001	0001	
0001	0001	0001	0001	0001	0001	0001	0010	

