begin at 
0100011111010000	0111011011100010	0110001010011000	0101001001100100	0101000100101000	0111010110010010	0100010010100101	0000011100101000	
0100001001011100	0001001010111010	0011110100100001	0100011100010011	0011101010111001	0110010010000010	0110110101101000	0100001010100011	
0010101100011100	0101000101101000	0011011011001110	0101011101101101	0011011000001111	0111111111011000	0011101111100000	0001110001010110	
0101101100110110	0110001111111100	0000011011101100	0111111000000110	0111000111101010	0101111111010101	0111100111000011	0111111110011010	
0011011100100011	0010100110001011	0110101010111101	0111001110011001	0111001010011011	0110110000000001	0001001011111110	0100000100101010	
0111011100110000	0101010110101101	0011000111111000	0000100110000100	0000001010001010	0000100110100111	0000101000110001	0100000110100101	
0011111111111111	0010011011111111	0001101101000110	0001010001000111	0111001010110011	0101101001010100	0011110100110001	0010000000010000	
0000101100000100	0010110110100010	0000000011000111	0110011000001001	0010101100100101	0000101001011100	0111100110000100	0111110001010001	

predefine.h parameters: 
16
2
16
4
8
1
0000000000000000000000000000000000000000000000010000000000101011
Orders
0 0
0 1
1 0
1 1
0 2
1 2
2 0
2 1
2 2
0 3
1 3
2 3
3 0
3 1
3 2
3 3
0 4
1 4
2 4
3 4
4 0
4 1
4 2
4 3
4 4
0 5
1 5
2 5
3 5
4 5
5 0
5 1
5 2
5 3
5 4
5 5
0 6
1 6
2 6
3 6
4 6
5 6
6 0
6 1
6 2
6 3
6 4
6 5
6 6
0 7
1 7
2 7
3 7
4 7
5 7
6 7
7 0
7 1
7 2
7 3
7 4
7 5
7 6
7 7

record MDS matrices found
0100011111010000	0111011011100010	0110001010011000	0101001001100100	0101000100101000	0111010110010010	0100010010100101	0000011100101000	
0100001001011100	0001001010111010	0011110100100001	0100011100010011	0011101010111001	0110010010000010	0110110101101000	0100001010100011	
0010101100011100	0101000101101000	0011011011001110	0101011101101101	0011011000001111	0111111111011000	0011101111100000	0001110001010110	
0101101100110110	0110001111111100	0000011011101100	0111111000000110	0111000111101010	0101111111010101	0111100111000011	0111111110011010	
0011011100100011	0010100110001011	0110101010111101	0111001110011001	0111001010011011	0110110000000001	0001001011111110	0100000100101010	
0111011100110000	0101010110101101	0011000111111000	0000100110000100	0000001010001010	0000100110100111	0000101000110001	0100000110100101	
0011111111111111	0010011011111111	0001101101000110	0001010001000111	0111001010110011	0101101001010100	0011110100110001	0010000000010000	
0000101100000100	0010110110100010	0000000011000111	0110011000001001	0010101100100101	0000101001011100	0111100110000100	0111110001010010	

