\relax 
\citation{peyrin2015lightweight}
\citation{sajadieh2012construction}
\citation{gupta2013constructions}
\citation{augot2013exhaustive}
\citation{wu2013recursive}
\citation{daemen1999aes}
\citation{schneier1999twofish}
\citation{rijmen1996cipher}
\citation{wu2013recursive}
\citation{sajadieh2012construction}
\citation{peyrin2015lightweight}
\citation{sajadieh2012construction}
\citation{gupta2013constructions}
\citation{augot2013exhaustive}
\citation{wu2013recursive}
\@writefile{toc}{\contentsline {section}{\numberline {1}Introduction}{\thepage }}
\@writefile{toc}{\contentsline {section}{\numberline {2}Preliminaries}{\thepage }}
\@writefile{toc}{\contentsline {subsection}{\numberline {2.1}Notations}{\thepage }}
\citation{macwilliams1977theory}
\citation{macwilliams1977theory}
\citation{daemen2002design}
\citation{daemen2002design}
\citation{daemen2002design}
\citation{macwilliams1977theory}
\citation{gupta2014constructions}
\citation{lay2003linear}
\citation{lay2003linear}
\citation{lay2003linear}
\@writefile{toc}{\contentsline {subsection}{\numberline {2.2}MDS Matrix and Linear Code}{\thepage }}
\newlabel{Thm_all_non_singular}{{2}{\thepage }}
\@writefile{toc}{\contentsline {section}{\numberline {3}Speed up the Judgement of MDS matrices}{\thepage }}
\@writefile{loa}{\contentsline {algorithm}{\numberline {1}{\ignorespaces Judge whether a matrix is MDS matrix}}{\thepage }}
\@writefile{toc}{\contentsline {section}{\numberline {4}Experiment of Searching MDS matrices}{\thepage }}
\@writefile{toc}{\contentsline {subsection}{\numberline {4.1}Backtracking Search}{\thepage }}
\@writefile{toc}{\contentsline {subsection}{\numberline {4.2}Pruning Optimization}{\thepage }}
\@writefile{loa}{\contentsline {algorithm}{\numberline {2}{\ignorespaces Naive Backtracking Search for MDS matrices}}{\thepage }}
\@writefile{lof}{\contentsline {figure}{\numberline {1}{\ignorespaces Illustration of our order}}{\thepage }}
\newlabel{search_order}{{1}{\thepage }}
\@writefile{loa}{\contentsline {algorithm}{\numberline {3}{\ignorespaces Define search order}}{\thepage }}
\newlabel{order_alg}{{3}{\thepage }}
\@writefile{loa}{\contentsline {algorithm}{\numberline {4}{\ignorespaces Pruning Optimization}}{\thepage }}
\newlabel{prun_opt}{{4}{\thepage }}
\@writefile{toc}{\contentsline {subsection}{\numberline {4.3}Generate new MDS matrices}{\thepage }}
\@writefile{toc}{\contentsline {section}{\numberline {5}Theoretical Analysis}{\thepage }}
\@writefile{toc}{\contentsline {subsection}{\numberline {5.1}Lower Bound of the Number of MDS Matrices}{\thepage }}
\citation{*}
\bibstyle{abbrv}
\bibdata{sigproc}
\bibcite{augot2013exhaustive}{1}
\bibcite{augot2014direct}{2}
\bibcite{berrou2002computing}{3}
\bibcite{biham1991differential}{4}
\bibcite{burr2003selecting}{5}
\bibcite{daemen1995cipher}{6}
\bibcite{daemen1999aes}{7}
\@writefile{toc}{\contentsline {subsection}{\numberline {5.2}Complexity of Our Algorithm}{\thepage }}
\@writefile{toc}{\contentsline {section}{\numberline {6}Searching Result}{\thepage }}
\@writefile{lof}{\contentsline {figure}{\numberline {2}{\ignorespaces Comparison of our result with previous work}}{\thepage }}
\newlabel{result_table}{{2}{\thepage }}
\@writefile{toc}{\contentsline {section}{\numberline {7}Conclusion}{\thepage }}
\@writefile{toc}{\contentsline {section}{\numberline {8}References}{\thepage }}
\bibcite{daemen2002design}{8}
\bibcite{dumer2003hardness}{9}
\bibcite{dworkin2001recommendation}{10}
\bibcite{guo2011photon}{11}
\bibcite{gupta2013constructions}{12}
\bibcite{gupta2014constructions}{13}
\bibcite{izadi2009mibs}{14}
\bibcite{junod2005perfect}{15}
\bibcite{lacan2004construction}{16}
\bibcite{lay2003linear}{17}
\bibcite{macwilliams1977theory}{18}
\bibcite{matsui1994linear}{19}
\bibcite{peyrin2015lightweight}{20}
\bibcite{rijmen1996cipher}{21}
\bibcite{sajadieh2012construction}{22}
\bibcite{sajadieh2012recursive}{23}
\bibcite{schneier1999twofish}{24}
\bibcite{shirai2004feistel}{25}
\bibcite{shirai2004improving}{26}
\bibcite{suzaki2013textnormal}{27}
\bibcite{wu2013recursive}{28}
\bibcite{wu2011lblock}{29}
\bibcite{youssef1997design}{30}
\@writefile{toc}{\contentsline {section}{\numberline {A}MDS Matrices Result}{\thepage }}
\@writefile{toc}{\contentsline {section}{\numberline {B}Function $N$}{\thepage }}
\@writefile{toc}{\contentsline {section}{\numberline {C}Percentage of MDS Matrices}{\thepage }}
\@writefile{toc}{\contentsline {section}{\numberline {D}Complexity}{\thepage }}
