\relax 
\@writefile{toc}{\contentsline {section}{\numberline {1}Abstract}{1}}
\@writefile{toc}{\contentsline {section}{\numberline {2}Introduction}{1}}
\@writefile{toc}{\contentsline {subsection}{\numberline {2.1}Content}{1}}
\@writefile{toc}{\contentsline {section}{\numberline {3}Preliminaries}{1}}
\@writefile{toc}{\contentsline {section}{\numberline {4}Proposal}{2}}
\@writefile{toc}{\contentsline {section}{\numberline {5}Reference}{3}}
